{
  "Become a Fedora contributor": "Become a Fedora contributor",
  "Both the Fedora Community Blog and Fedora Magazine are always [looking for article proposals, writers, and editors](https://docs.fedoraproject.org/en-US/fedora-magazine/contributing/). ": "Both the Fedora Community Blog and Fedora Magazine are always [looking for article proposals, writers, and editors](https://docs.fedoraproject.org/en-US/fedora-magazine/contributing/). ",
  "Chat": "Chat",
  "Chat Now": "Chat Now",
  "Communication channels": "Communication channels",
  "Community": "Community",
  "Description": "Description",
  "Developers": "Developers",
  "Fedora Community Blog": "Fedora Community Blog",
  "Fedora Magazine": "Fedora Magazine",
  "Fedora Magazine is a website that hosts promotional articles and short guides contributed from the community about free/libre and open-source software that runs on or works with the Fedora Linux operating system.": "Fedora Magazine is a website that hosts promotional articles and short guides contributed from the community about free/libre and open-source software that runs on or works with the Fedora Linux operating system.",
  "Fedora Publications": "Fedora Publications",
  "Fedora Silverblue is a community-driven project seeking contributions from folks with any skillset. From documentation writing, to beta testing, to helping others by answering questions, there are plenty of ways to get involved and help shape the future of Silverblue!": "Fedora Silverblue is a community-driven project seeking contributions from folks with any skillset. From documentation writing, to beta testing, to helping others by answering questions, there are plenty of ways to get involved and help shape the future of Silverblue!",
  "Fedora Silverblue is powered by some amazing open-source projects, including [ostree](https://github.com/ostreedev/ostree), [rpm-ostree](https://github.com/coreos/rpm-ostree), and [flatpak](https://github.com/flatpak/flatpak). If you are a developer, consider helping out with one of these projects.": "Fedora Silverblue is powered by some amazing open-source projects, including [ostree](https://github.com/ostreedev/ostree), [rpm-ostree](https://github.com/coreos/rpm-ostree), and [flatpak](https://github.com/flatpak/flatpak). If you are a developer, consider helping out with one of these projects.",
  "Fedora Silverblue utilizes interesting, cutting-edge technology, and we need to tell more people about it! If you're a keen writer, contributing to the [Fedora Silverblue documentation](https://github.com/fedora-silverblue/silverblue-docs) will help others learn how their system works, and all the cool things they can do with it.": "Fedora Silverblue utilizes interesting, cutting-edge technology, and we need to tell more people about it! If you're a keen writer, contributing to the [Fedora Silverblue documentation](https://github.com/fedora-silverblue/silverblue-docs) will help others learn how their system works, and all the cool things they can do with it.",
  "Forum": "Forum",
  "Found something that isn't quite right? Want to propose a change to the way Silverblue works? We want to hear from you! Head over to the [Fedora Silverblue issue tracker](https://github.com/fedora-silverblue/issue-tracker) and let us know.": "Found something that isn't quite right? Want to propose a change to the way Silverblue works? We want to hear from you! Head over to the [Fedora Silverblue issue tracker](https://github.com/fedora-silverblue/issue-tracker) and let us know.",
  "Join a community of users and contributors focused on Fedora Silverblue.": "Join a community of users and contributors focused on Fedora Silverblue.",
  "Testers": "Testers",
  "The **Fedora Silverblue** tag on Fedora's Discourse-based discussion forum is a great place to connect with other Fedora Silverblue users and contributors.": "The **Fedora Silverblue** tag on Fedora's Discourse-based discussion forum is a great place to connect with other Fedora Silverblue users and contributors.",
  "The Community Blog provides a single source for members of the community to share important news, updates, and information about Fedora with others in the Project community.": "The Community Blog provides a single source for members of the community to share important news, updates, and information about Fedora with others in the Project community.",
  "Visit Now": "Visit Now",
  "Visit now": "Visit now",
  "Ways to get involved": "Ways to get involved",
  "Writers": "Writers",
  "You can chat with the Fedora Silverblue community via either Matrix or IRC: **#silverblue:fedoraproject.org** on Matrix or #silverblue on irc.libera.chat.": "You can chat with the Fedora Silverblue community via either Matrix or IRC: **#silverblue:fedoraproject.org** on Matrix or #silverblue on irc.libera.chat."
}