{
  "A digital audio workstation with advanced midi sequencers geared for personal home use.": "A digital audio workstation with advanced midi sequencers geared for personal home use.",
  "A powerful multi-channel digital audio workstation, provides everything you need for your audio projects.": "A powerful multi-channel digital audio workstation, provides everything you need for your audio projects.",
  "A powerful synthesizer capable of making a countless number of instrument sounds.": "A powerful synthesizer capable of making a countless number of instrument sounds.",
  "A realtime software looping sampler perfect for live performance.": "A realtime software looping sampler perfect for live performance.",
  "An advanced drum machine that features professional yet simple and intuitive pattern-based drum programming.": "An advanced drum machine that features professional yet simple and intuitive pattern-based drum programming.",
  "An easy way to write music with an integrated sequencer.": "An easy way to write music with an integrated sequencer.",
  "Ardour": "Ardour",
  "Calf": "Calf",
  "Documentation": "Documentation",
  "Everything you need to turn your computer into a full blown guitar rig. Get pro quality sounds and effects.": "Everything you need to turn your computer into a full blown guitar rig. Get pro quality sounds and effects.",
  "Featured Applications": "Featured Applications",
  "Fedora Jam Lab": "Fedora Jam Lab",
  "Fedora Jam is for audio enthusiasts and musicians who want to create,  edit and produce audio and music on Linux.  It comes with JACK, ALSA and PulseAudio by default including a suite of programs to tailor your studio.\n\nFedora Jam is a full-featured audio creation spin. It includes all the tools needed to help create the music you want, anything from classical to jazz to heavy metal. Included in Fedora Jam is full support for JACK and JACK to PulseAudio bridging, the newest release of Ardour, and a full set of LV2 plugins.": "Fedora Jam is for audio enthusiasts and musicians who want to create,  edit and produce audio and music on Linux.  It comes with JACK, ALSA and PulseAudio by default including a suite of programs to tailor your studio.\n\nFedora Jam is a full-featured audio creation spin. It includes all the tools needed to help create the music you want, anything from classical to jazz to heavy metal. Included in Fedora Jam is full support for JACK and JACK to PulseAudio bridging, the newest release of Ardour, and a full set of LV2 plugins.",
  "Guitarix": "Guitarix",
  "Hydrogen": "Hydrogen",
  "Learn guitar with this guitar tablature editor with ability to display scores and multitrack tabs.": "Learn guitar with this guitar tablature editor with ability to display scores and multitrack tabs.",
  "MuseScore": "MuseScore",
  "Professional state-of-the-art audio plugins for musicians and multitrack software.": "Professional state-of-the-art audio plugins for musicians and multitrack software.",
  "Qtractor": "Qtractor",
  "SooperLooper": "SooperLooper",
  "TuxGuitar": "TuxGuitar",
  "Yoshimi": "Yoshimi"
}