{
  "A modern media player, using gtk3 and the gstreamer plugin framework.": "A modern media player, using gtk3 and the gstreamer plugin framework.",
  "Atril is a simple multi-page document viewer. It can display and print PostScript, DVI, XPS and Portable Document Format files.": "Atril is a simple multi-page document viewer. It can display and print PostScript, DVI, XPS and Portable Document Format files.",
  "Budgie Desktop Settings provide a wide range of capabilities for personalization, from Raven and panel management to theming.": "Budgie Desktop Settings provide a wide range of capabilities for personalization, from Raven and panel management to theming.",
  "Download Now": "Download Now",
  "Explore the World Wide Web with Firefox, the full featured web browser.": "Explore the World Wide Web with Firefox, the full featured web browser.",
  "Eye of MATE is meant to be a fast and functional image viewer.": "Eye of MATE is meant to be a fast and functional image viewer.",
  "Fedora Budgie Image": "Fedora Budgie Image",
  "Fedora Budgie Spin": "Fedora Budgie Spin",
  "Fedora Budgie Spin ships GNOME Terminal, the gateway to the real power of any UNIX/Linux machine.": "Fedora Budgie Spin ships GNOME Terminal, the gateway to the real power of any UNIX/Linux machine.",
  "Going Online": "Going Online",
  "LibreOffice is an integrated office suite. It utilizes free and open standards for its document formats and components.": "LibreOffice is an integrated office suite. It utilizes free and open standards for its document formats and components.",
  "Mozilla Thunderbird is a standalone Matrix, mail and newsgroup client. Organize your schedule with the included Lightning calendar application.": "Mozilla Thunderbird is a standalone Matrix, mail and newsgroup client. Organize your schedule with the included Lightning calendar application.",
  "Multimedia": "Multimedia",
  "Office & Productivity": "Office & Productivity",
  "Screenshot of Fedora Budgie desktop": "Screenshot of Fedora Budgie desktop",
  "Simple interface. Powerful music management. Playlists. Streaming Radio. Podcasts.": "Simple interface. Powerful music management. Playlists. Streaming Radio. Podcasts.",
  "The Fedora Budgie Spin showcases the Budgie Desktop, a feature-rich, modern desktop designed to keep out the way of the user. Budgie Desktop uses common desktop design metaphors while offering uses sophisticated functionality such as its Raven widget and notification center, and an approachable method to personalization.\n\nThis Spin is designed to align closely with upstream Budgie Desktop, providing a close to vanilla experience with a curated set of default applications that fit in best with Budgie.": "The Fedora Budgie Spin showcases the Budgie Desktop, a feature-rich, modern desktop designed to keep out the way of the user. Budgie Desktop uses common desktop design metaphors while offering uses sophisticated functionality such as its Raven widget and notification center, and an approachable method to personalization.\n\nThis Spin is designed to align closely with upstream Budgie Desktop, providing a close to vanilla experience with a curated set of default applications that fit in best with Budgie.",
  "Utilities & Configuration": "Utilities & Configuration"
}
